<?xml version="1.0" encoding="UTF-8" standalone="no"?>
<!-- Created with Inkscape (http://www.inkscape.org/) -->

<svg
   xmlns:dc="http://purl.org/dc/elements/1.1/"
   xmlns:cc="http://creativecommons.org/ns#"
   xmlns:rdf="http://www.w3.org/1999/02/22-rdf-syntax-ns#"
   xmlns:svg="http://www.w3.org/2000/svg"
   xmlns="http://www.w3.org/2000/svg"
   xmlns:sodipodi="http://sodipodi.sourceforge.net/DTD/sodipodi-0.dtd"
   xmlns:inkscape="http://www.inkscape.org/namespaces/inkscape"
   width="960"
   height="960"
   id="svg2"
   version="1.1"
   inkscape:version="0.48.4 r9939"
   sodipodi:docname="avatar.svg"
   inkscape:export-filename="/home/risko/Desktop/composition-files-main/identity/avatar/avatar.png"
   inkscape:export-xdpi="89.999992"
   inkscape:export-ydpi="89.999992">
  <defs
     id="defs4" />
  <sodipodi:namedview
     id="base"
     pagecolor="#ffffff"
     bordercolor="#666666"
     borderopacity="1.0"
     inkscape:pageopacity="0.0"
     inkscape:pageshadow="2"
     inkscape:zoom="0.35"
     inkscape:cx="372.85716"
     inkscape:cy="465.18036"
     inkscape:document-units="px"
     inkscape:current-layer="layer1"
     showgrid="false"
     inkscape:window-width="1600"
     inkscape:window-height="837"
     inkscape:window-x="-3"
     inkscape:window-y="-3"
     inkscape:window-maximized="1" />
  <metadata
     id="metadata7">
    <rdf:RDF>
      <cc:Work
         rdf:about="">
        <dc:format>image/svg+xml</dc:format>
        <dc:type
           rdf:resource="http://purl.org/dc/dcmitype/StillImage" />
        <dc:title></dc:title>
      </cc:Work>
    </rdf:RDF>
  </metadata>
  <g
     inkscape:label="Camada 1"
     inkscape:groupmode="layer"
     id="layer1"
     transform="translate(0,-92.362183)">
    <rect
       style="fill:#ffffff;fill-opacity:1"
       id="rect3841"
       width="960"
       height="960"
       x="0"
       y="92.362183" />
    <path
       style="fill:#0e76bc;fill-opacity:1"
       d="m 0,572.36215 0,-479.999998 479.99995,0 480,0 0,479.999998 0,480.00005 -480,0 -479.99995,0 0,-480.00005 z m 488.65215,160.76358 28.3478,-21.23643 -0.013,-42.01357 c -0.012,-37.03929 -0.2335,-43.08125 -1.8743,-51.03132 -2.3605,-11.43675 -6.8126,-22.14521 -13.1285,-31.57777 -2.7268,-4.07247 -4.9638,-7.67311 -4.9709,-8.00142 -0.01,-0.32831 2.4109,-4.21846 5.3736,-8.64479 6.4586,-9.64925 10.8712,-20.64232 13.1349,-32.72295 2.2934,-12.23908 1.6789,-56.85881 -0.9086,-65.97383 -8.3672,-29.47508 -28.3744,-50.9479 -56.6131,-60.76039 l -9.5,-3.3011 -136.75,-0.27071 -136.74995,-0.27071 0,138.5207 0,138.52071 29,0 28.99995,0 0,-38 0,-38 100.8185,0 c 115.349,0 107.764,-0.54801 116.7468,8.43478 8.6951,8.69517 8.4347,6.32601 8.4347,76.74672 0,33.45018 0.2935,60.8185 0.6522,60.8185 0.3587,0 13.4087,-9.55639 29,-21.23642 z m -255.6522,-225.28639 0,-42.52281 102.25,0.27281 102.25,0.27281 5.7041,2.80109 c 6.0786,2.98496 9.5444,6.4478 13.0937,13.08244 2.0782,3.88454 2.2022,5.35597 2.2022,26.11647 0,21.99073 -0.001,22.00217 -2.71,27.13785 -1.4905,2.82582 -4.6208,6.77346 -6.9563,8.77253 -8.022,6.8665 -3.1894,6.58962 -115.0152,6.58962 l -100.8185,0 0,-42.52281 z m 466.3004,158.33111 c 110.9766,-83.82289 116.6724,-88.27644 114.9801,-89.90221 -0.9793,-0.94078 -51.9554,-39.55451 -113.2803,-85.8083 l -111.4998,-84.09778 -43.2502,0 c -23.7876,0 -43.2502,0.35129 -43.2502,0.78064 0,0.42934 50.3973,38.78204 111.994,85.22821 105.2243,79.34302 111.8886,84.54752 110.25,86.10075 -0.9592,0.90924 -53.3815,40.65846 -116.494,88.33159 -63.1125,47.67313 -114.75,86.87651 -114.75,87.11861 0,0.24211 19.9215,0.44019 44.2699,0.44019 l 44.2698,0 116.7607,-88.1917 z"
       id="path3050"
       inkscape:connector-curvature="0"
       inkscape:export-xdpi="90"
       inkscape:export-ydpi="90" />
  </g>
</svg>
