<?xml version="1.0" encoding="UTF-8" standalone="no"?>
<!-- Generator: Adobe Illustrator 16.0.0, SVG Export Plug-In . SVG Version: 6.00 Build 0)  -->

<svg
   xmlns:dc="http://purl.org/dc/elements/1.1/"
   xmlns:cc="http://creativecommons.org/ns#"
   xmlns:rdf="http://www.w3.org/1999/02/22-rdf-syntax-ns#"
   xmlns:svg="http://www.w3.org/2000/svg"
   xmlns="http://www.w3.org/2000/svg"
   xmlns:sodipodi="http://sodipodi.sourceforge.net/DTD/sodipodi-0.dtd"
   xmlns:inkscape="http://www.inkscape.org/namespaces/inkscape"
   version="1.1"
   id="Layer_1"
   x="0px"
   y="0px"
   width="600px"
   height="438px"
   viewBox="0 0 600 438"
   enable-background="new 0 0 600 438"
   xml:space="preserve"
   inkscape:version="0.48.4 r9939"
   sodipodi:docname="logo.svg"><metadata
     id="metadata51"><rdf:RDF><cc:Work
         rdf:about=""><dc:format>image/svg+xml</dc:format><dc:type
           rdf:resource="http://purl.org/dc/dcmitype/StillImage" /></cc:Work></rdf:RDF></metadata><defs
     id="defs49"><linearGradient
       y2="50.2036"
       x2="159.708"
       y1="110.3599"
       x1="159.708"
       gradientUnits="userSpaceOnUse"
       id="SVGID_1_"><stop
         id="stop8"
         style="stop-color:#404041"
         offset="0.1735" /><stop
         id="stop10"
         style="stop-color:#434344"
         offset="0.3561" /><stop
         id="stop12"
         style="stop-color:#4D4E4F"
         offset="0.5115" /><stop
         id="stop14"
         style="stop-color:#5E5F60"
         offset="0.6567" /><stop
         id="stop16"
         style="stop-color:#6D6E70"
         offset="0.75" /></linearGradient><linearGradient
       y2="49.7432"
       x2="306.5254"
       y1="109.9355"
       x1="306.5254"
       gradientUnits="userSpaceOnUse"
       id="SVGID_2_"><stop
         id="stop21"
         style="stop-color:#404041"
         offset="0.1735" /><stop
         id="stop23"
         style="stop-color:#434344"
         offset="0.3561" /><stop
         id="stop25"
         style="stop-color:#4D4E4F"
         offset="0.5115" /><stop
         id="stop27"
         style="stop-color:#5E5F60"
         offset="0.6567" /><stop
         id="stop29"
         style="stop-color:#6D6E70"
         offset="0.75" /></linearGradient></defs><sodipodi:namedview
     pagecolor="#ffffff"
     bordercolor="#666666"
     borderopacity="1"
     objecttolerance="10"
     gridtolerance="10"
     guidetolerance="10"
     inkscape:pageopacity="0"
     inkscape:pageshadow="2"
     inkscape:window-width="1600"
     inkscape:window-height="837"
     id="namedview47"
     showgrid="false"
     inkscape:zoom="1.4726027"
     inkscape:cx="300"
     inkscape:cy="273.32558"
     inkscape:window-x="-3"
     inkscape:window-y="-3"
     inkscape:window-maximized="1"
     inkscape:current-layer="Layer_1" /><g
     id="g3885"
     transform="translate(-2.9355,30.55814)"><polygon
       points="419.896,110.061 435.173,110.061 475.736,79.414 436.596,49.869 421.52,49.869 460.563,79.313 "
       id="polygon5"
       style="fill:#1b75bb" /><path
       clip-rule="evenodd"
       d="m 140.054,60.23 v 14.838 h 34.417 c 1.355,0 2.512,-0.501 3.472,-1.47 0.958,-0.972 1.42,-2.173 1.42,-3.609 v -4.78 c 0,-1.405 -0.463,-2.572 -1.42,-3.544 -0.96,-0.966 -2.117,-1.435 -3.472,-1.435 h -34.417 z m 49.227,9.759 c 0,3.743 -1.191,7.084 -3.636,10.025 2.445,2.974 3.636,6.315 3.636,10.025 v 12.903 l -9.885,7.417 h -0.033 V 90.04 c 0,-1.437 -0.463,-2.64 -1.42,-3.607 -0.96,-0.971 -2.117,-1.438 -3.472,-1.438 H 140.054 V 98.23 h -9.919 V 50.204 h 44.336 c 4.099,0 7.602,1.471 10.479,4.377 2.909,2.908 4.331,6.45 4.331,10.628 v 4.78 z"
       id="path18"
       style="fill:#484848;fill-opacity:1;fill-rule:evenodd"
       inkscape:connector-curvature="0" /><path
       d="m 209.759,49.877 -0.031,14.305 -9.889,7.455 V 57.362 l 9.92,-7.485 z m 0,23.161 -0.031,36.863 h -9.889 V 80.489 l 9.92,-7.451 z m 53.161,10.796 h -27.506 c -4.065,0 -7.505,-1.437 -10.382,-4.312 -2.843,-2.841 -4.86,-6.35 -4.86,-10.528 v -4.377 c 0,-4.11 2.017,-7.619 4.86,-10.496 2.877,-2.908 6.317,-4.344 10.382,-4.344 h 29.16 c 4,0 7.373,1.436 10.05,4.312 1.984,2.104 3.207,4.544 3.736,7.387 l -9.523,7.185 v -4.044 c 0,-2.809 -2.117,-4.845 -4.859,-4.845 h -28.563 c -2.415,0 -5.454,2.438 -5.454,4.845 v 4.377 c 0,2.44 3.007,5.014 5.454,5.014 h 29.16 c 8.329,0 13.82,7.921 13.82,15.841 v 5.279 c 0,7.589 -6.049,14.808 -13.82,14.808 h -28.533 c -4.066,0 -8.958,-1.437 -11.835,-4.313 -2.149,-2.172 -3.503,-4.979 -4.034,-7.851 l 9.556,-7.251 c 0,2.671 -0.53,6.115 1.42,8.087 0.96,0.934 3.539,1.437 4.893,1.437 h 26.879 c 2.744,0 5.654,-2.175 5.654,-4.916 V 89.85 c -10e-4,-3.143 -2.184,-6.016 -5.655,-6.016 l 0,0 z m 29.525,-4.581 39.143,-29.51 h 15.075 l -39.046,29.41 40.633,30.748 H 333.01 L 292.445,79.253 z m -3.54,-6.147 V 49.743 h 9.786 v 15.94 l -9.786,7.423 z m 9.786,19.718 v 17.112 h -9.786 V 85.402 l 9.786,7.422 z m 70.685,-43.047 h 29.161 c 0.891,0 1.783,0.067 2.61,0.234 l -12.861,9.691 h -18.91 c -2.714,0 -4.862,2.137 -4.862,4.914 v 30.479 c 0,2.741 2.148,4.914 4.862,4.914 h 29.161 c 2.741,0 4.855,-2.172 4.855,-4.914 V 67.423 l 9.258,-6.985 c 0.296,0.701 0.562,2.706 0.562,4.178 v 30.479 c 0,8.253 -6.479,14.84 -14.675,14.84 h -29.161 c -8.268,0 -14.548,-6.519 -14.548,-14.84 V 64.616 c 0,-8.355 6.28,-14.839 14.548,-14.839 l 0,0 z"
       id="path31"
       style="fill:#484848;fill-opacity:1"
       inkscape:connector-curvature="0" /></g><rect
     y="219"
     fill-rule="evenodd"
     clip-rule="evenodd"
     fill="#484848"
     width="600"
     height="219"
     id="rect35" /><g
     id="g37"
     transform="translate(-2.9355,35.311627)"
     inkscape:transform-center-y="-16.297674"><polygon
       points="436.596,265.155 421.52,265.155 460.563,294.601 419.896,325.349 435.173,325.349 475.736,294.701 "
       id="polygon39"
       style="fill:#ffffff" /><path
       clip-rule="evenodd"
       d="m 140.054,275.518 v 14.838 h 34.417 c 1.355,0 2.512,-0.501 3.472,-1.47 0.958,-0.972 1.42,-2.174 1.42,-3.609 v -4.779 c 0,-1.406 -0.463,-2.572 -1.42,-3.545 -0.96,-0.967 -2.117,-1.435 -3.472,-1.435 h -34.417 z m 49.227,9.758 c 0,3.743 -1.191,7.084 -3.636,10.025 2.445,2.974 3.636,6.314 3.636,10.025 v 12.902 l -9.885,7.418 h -0.033 v -20.32 c 0,-1.438 -0.463,-2.641 -1.42,-3.607 -0.96,-0.971 -2.117,-1.438 -3.472,-1.438 h -34.417 v 13.236 h -9.919 v -48.026 h 44.336 c 4.099,0 7.602,1.471 10.479,4.377 2.909,2.908 4.331,6.45 4.331,10.629 v 4.779 z"
       id="path41"
       inkscape:connector-curvature="0"
       style="fill:#ffffff;fill-rule:evenodd" /><path
       d="m 209.759,265.164 -0.031,14.305 -9.889,7.455 V 272.65 l 9.92,-7.486 z m 0,23.161 -0.031,36.863 h -9.889 v -29.412 l 9.92,-7.451 z m 53.161,10.796 h -27.506 c -4.065,0 -7.505,-1.437 -10.382,-4.312 -2.843,-2.842 -4.86,-6.351 -4.86,-10.529 v -4.377 c 0,-4.109 2.017,-7.619 4.86,-10.496 2.877,-2.907 6.317,-4.344 10.382,-4.344 h 29.16 c 4,0 7.373,1.437 10.05,4.313 1.984,2.104 3.207,4.544 3.736,7.387 l -9.523,7.185 v -4.044 c 0,-2.809 -2.117,-4.846 -4.859,-4.846 h -28.563 c -2.415,0 -5.454,2.438 -5.454,4.846 v 4.377 c 0,2.441 3.007,5.015 5.454,5.015 h 29.16 c 8.329,0 13.82,7.921 13.82,15.841 v 5.279 c 0,7.59 -6.049,14.808 -13.82,14.808 h -28.533 c -4.066,0 -8.958,-1.437 -11.835,-4.313 -2.149,-2.172 -3.503,-4.979 -4.034,-7.852 l 9.556,-7.251 c 0,2.671 -0.53,6.115 1.42,8.087 0.96,0.934 3.539,1.438 4.893,1.438 h 26.879 c 2.744,0 5.654,-2.175 5.654,-4.916 v -5.279 c -10e-4,-3.144 -2.184,-6.017 -5.655,-6.017 l 0,0 z m 29.525,-4.581 39.143,-29.51 h 15.075 l -39.046,29.41 40.633,30.748 H 333.01 L 292.445,294.54 z m -3.54,-6.146 V 265.03 h 9.786 v 15.939 l -9.786,7.425 z m 9.786,19.716 v 17.112 h -9.786 v -24.534 l 9.786,7.422 z m 70.685,-43.047 h 29.161 c 0.891,0 1.783,0.068 2.61,0.234 l -12.861,9.691 h -18.91 c -2.714,0 -4.862,2.138 -4.862,4.914 v 30.479 c 0,2.742 2.148,4.914 4.862,4.914 h 29.161 c 2.741,0 4.855,-2.172 4.855,-4.914 V 282.71 l 9.258,-6.984 c 0.296,0.7 0.562,2.705 0.562,4.178 v 30.479 c 0,8.254 -6.479,14.841 -14.675,14.841 h -29.161 c -8.268,0 -14.548,-6.519 -14.548,-14.841 v -30.479 c 0,-8.356 6.28,-14.841 14.548,-14.841 l 0,0 z"
       id="path43"
       inkscape:connector-curvature="0"
       style="fill:#ffffff" /></g></svg>